,speed,time
0,0.01,0.0
1,0.72,0.01
2,1.91,0.02
3,3.34,0.03
4,3.09,0.04
5,6.38,0.05
6,8.36,0.06
7,9.59,0.07
8,12.53,0.08
9,13.08,0.09
10,14.82,0.1
11,11.2,0.11
12,18.25,0.12
13,20.05,0.13
14,21.88,0.14
15,25.07,0.15
16,26.13,0.16
17,27.95,0.17
18,29.77,0.18
19,30.99,0.19
20,33.42,0.2
21,34.64,0.21
22,36.42,0.22
23,38.85,0.23
24,38.89,0.24
25,40.67,0.25
26,42.58,0.26
27,43.06,0.27
28,35.31,0.28
29,45.72,0.29
30,48.02,0.3
31,50.65,0.31
32,50.37,0.32
33,53.47,0.33
34,54.1,0.34
35,55.5,0.35000000000000003
36,57.83,0.36
37,59.7,0.37
38,61.56,0.38
39,62.45,0.39
40,64.4,0.4
41,65.71,0.41000000000000003
42,66.68,0.42
43,68.56,0.43
44,68.36,0.44
45,71.15,0.45
46,74.62,0.46
47,72.47,0.47000000000000003
48,74.1,0.48
49,74.2,0.49
50,76.02,0.5
51,74.23,0.51
52,75.56,0.52
53,72.97,0.53
54,75.08,0.54
55,72.92,0.55
56,75.55,0.56
57,74.75,0.5700000000000001
58,76.02,0.58
59,74.29,0.59
60,76.43,0.6
61,74.33,0.61
62,77.83,0.62
63,77.82,0.63
64,77.01,0.64
65,77.42,0.65
66,76.48,0.66
67,75.55,0.67
68,75.08,0.68
69,73.83,0.6900000000000001
70,75.49,0.7000000000000001
71,75.13,0.71
72,74.58,0.72
73,73.88,0.73
74,75.03,0.74
75,76.08,0.75
76,75.49,0.76
77,76.01,0.77
78,75.61,0.78
79,76.43,0.79
80,74.34,0.8
81,76.0,0.81
82,77.89,0.8200000000000001
83,76.11,0.8300000000000001
84,76.95,0.84
85,74.74,0.85
86,73.84,0.86
87,75.96,0.87
88,62.86,0.88
89,76.31,0.89
90,72.46,0.9
91,74.16,0.91
92,74.54,0.92
93,75.29,0.93
94,75.29,0.9400000000000001
95,75.3,0.9500000000000001
96,75.29,0.96
97,75.25,0.97
98,76.85,0.98
99,76.77,0.99
100,74.64,1.0
101,74.92,1.01
102,75.34,1.02
103,75.93,1.03
104,75.97,1.04
105,73.78,1.05
106,74.16,1.06
107,74.54,1.07
108,75.25,1.08
109,75.72,1.09
110,74.92,1.1
111,75.67,1.11
112,75.3,1.12
113,76.43,1.1300000000000001
114,77.19,1.1400000000000001
115,76.43,1.1500000000000001
116,75.3,1.16
117,75.29,1.17
118,74.91,1.18
119,74.54,1.19
120,73.4,1.2
121,74.16,1.21
122,74.12,1.22
123,75.34,1.23
124,75.29,1.24
125,75.3,1.25
126,75.67,1.26
127,75.29,1.27
128,76.81,1.28
129,76.39,1.29
130,75.05,1.3
131,75.3,1.31
132,75.25,1.32
133,74.87,1.33
134,75.34,1.34
135,73.78,1.35
136,74.54,1.36
137,75.59,1.37
138,75.72,1.3800000000000001
139,75.25,1.3900000000000001
140,75.67,1.4000000000000001
141,74.97,1.41
142,74.92,1.42
143,76.05,1.43
144,76.81,1.44
145,76.05,1.45
146,74.88,1.46
147,74.92,1.47
148,74.91,1.48
149,74.92,1.49
150,74.16,1.5
151,74.16,1.51
152,74.12,1.52
153,75.72,1.53
154,74.92,1.54
155,75.67,1.55
156,75.63,1.56
157,74.3,1.57
158,76.44,1.58
159,76.77,1.59
160,76.42,1.6
161,73.94,1.61
162,75.29,1.62
163,74.92,1.6300000000000001
164,75.25,1.6400000000000001
165,73.16,1.6500000000000001
166,74.95,1.6600000000000001
167,73.75,1.67
168,75.34,1.68
169,74.88,1.69
170,75.34,1.7
171,74.92,1.71
172,75.3,1.72
173,76.01,1.73
174,76.81,1.74
175,75.06,1.75
176,75.68,1.76
177,74.92,1.77
178,74.87,1.78
179,75.29,1.79
180,75.63,1.8
181,75.97,1.81
182,74.16,1.82
183,75.29,1.83
184,75.25,1.84
185,75.72,1.85
186,75.29,1.86
187,76.7,1.87
188,75.67,1.8800000000000001
189,77.57,1.8900000000000001
190,75.39,1.9000000000000001
191,75.67,1.9100000000000001
192,75.25,1.92
193,75.3,1.93
194,75.25,1.94
195,73.2,1.95
196,74.87,1.96
197,73.2,1.97
198,77.46,1.98
199,76.02,1.99
200,76.7,2.0
201,76.35,2.0100000000000002
202,75.67,2.02
203,75.64,2.0300000000000002
204,76.17,2.04
205,76.76,2.05
206,76.79,2.06
207,75.93,2.07
208,74.87,2.08
209,74.97,2.09
210,74.54,2.1
211,74.54,2.11
212,72.75,2.12
213,75.33,2.13
214,75.63,2.14
215,75.72,2.15
216,75.67,2.16
217,74.27,2.17
218,76.39,2.18
219,77.18,2.19
220,75.76,2.2
221,75.72,2.21
222,75.3,2.22
223,73.9,2.23
224,75.67,2.24
225,71.83,2.25
226,76.36,2.2600000000000002
227,73.12,2.27
228,75.67,2.2800000000000002
229,74.31,2.29
230,76.04,2.3000000000000003
231,75.27,2.31
232,75.34,2.32
233,74.27,2.33
234,77.57,2.34
235,76.76,2.35
236,74.69,2.36
237,75.25,2.37
238,74.26,2.38
239,75.35,2.39
240,74.54,2.4
241,73.16,2.41
242,74.54,2.42
243,75.68,2.43
244,76.75,2.44
245,75.3,2.45
246,76.74,2.46
247,75.29,2.47
248,73.9,2.48
249,77.18,2.49
250,76.77,2.5
251,75.72,2.5100000000000002
252,74.92,2.52
253,75.25,2.5300000000000002
254,75.71,2.54
255,74.54,2.5500000000000003
256,74.54,2.56
257,72.42,2.57
258,75.63,2.58
259,75.3,2.59
260,75.67,2.6
261,75.63,2.61
262,76.1,2.62
263,75.29,2.63
264,75.71,2.64
265,76.85,2.65
266,76.01,2.66
267,74.91,2.67
268,75.3,2.68
269,75.68,2.69
270,73.52,2.7
271,74.17,2.71
272,74.16,2.72
273,75.29,2.73
274,75.63,2.74
275,75.67,2.75
276,75.68,2.7600000000000002
277,74.27,2.77
278,77.46,2.7800000000000002
279,76.8,2.79
280,76.82,2.8000000000000003
281,74.68,2.81
282,75.29,2.82
283,74.92,2.83
284,75.3,2.84
285,73.48,2.85
286,74.55,2.86
287,74.2,2.87
288,74.27,2.88
289,75.67,2.89
290,76.01,2.9
291,75.63,2.91
292,75.72,2.92
293,74.6,2.93
294,77.61,2.94
295,76.43,2.95
296,76.05,2.96
297,73.48,2.97
298,76.41,2.98
299,74.87,2.99
300,74.59,3.0
301,74.16,3.0100000000000002
302,74.12,3.02
303,74.69,3.0300000000000002
304,75.25,3.04
305,74.64,3.0500000000000003
306,76.1,3.06
307,76.11,3.0700000000000003
308,75.68,3.08
309,77.19,3.09
310,76.81,3.1
311,77.13,3.11
312,74.87,3.12
313,75.34,3.13
314,74.27,3.14
315,74.54,3.15
316,74.5,3.16
317,73.57,3.17
318,74.27,3.18
319,76.43,3.19
320,76.05,3.2
321,75.67,3.21
322,75.73,3.22
323,76.05,3.23
324,77.19,3.24
325,76.77,3.25
326,76.43,3.2600000000000002
327,74.96,3.27
328,73.87,3.2800000000000002
329,75.33,3.29
330,76.31,3.3000000000000003
331,74.16,3.31
332,74.58,3.3200000000000003
333,74.27,3.33
334,75.68,3.34
335,74.97,3.35
336,76.05,3.36
337,76.1,3.37
338,74.64,3.38
339,76.5,3.39
340,76.81,3.4
341,76.43,3.41
342,76.7,3.42
343,75.34,3.43
344,75.29,3.44
345,75.3,3.45
346,74.92,3.46
347,74.17,3.47
348,75.3,3.48
349,74.6,3.49
350,76.09,3.5
351,74.27,3.5100000000000002
352,76.01,3.52
353,74.27,3.5300000000000002
354,77.61,3.54
355,76.77,3.5500000000000003
356,76.39,3.56
357,74.31,3.5700000000000003
358,75.68,3.58
359,75.97,3.59
360,74.16,3.6
361,73.78,3.61
362,74.54,3.62
363,75.68,3.63
364,73.9,3.64
365,76.05,3.65
366,75.67,3.66
367,74.61,3.67
368,75.67,3.68
369,77.23,3.69
370,76.81,3.7
371,76.01,3.71
372,74.96,3.72
373,73.86,3.73
374,75.3,3.74
375,74.54,3.75
376,74.2,3.7600000000000002
377,73.16,3.77
378,75.3,3.7800000000000002
379,74.6,3.79
380,75.72,3.8000000000000003
381,76.01,3.81
382,76.05,3.8200000000000003
383,74.64,3.83
384,77.57,3.84
385,75.38,3.85
386,76.43,3.86
387,74.92,3.87
388,75.63,3.88
389,73.95,3.89
390,75.3,3.9
391,74.11,3.91
392,73.2,3.92
393,75.63,3.93
394,74.68,3.94
395,74.64,3.95
396,76.05,3.96
397,74.97,3.97
398,75.72,3.98
399,79.06,3.99
400,76.81,4.0
401,76.01,4.01
402,74.3,4.0200000000000005
403,74.94,4.03
404,75.25,4.04
405,74.92,4.05
406,73.16,4.0600000000000005
407,74.87,4.07
408,74.32,4.08
409,75.63,4.09
410,75.0,4.1
411,76.06,4.11
412,74.32,4.12
413,74.65,4.13
414,77.56,4.14
415,76.76,4.15
416,75.06,4.16
417,73.9,4.17
418,76.05,4.18
419,74.27,4.19
420,74.92,4.2
421,73.48,4.21
422,76.4,4.22
423,73.9,4.23
424,75.29,4.24
425,75.67,4.25
426,74.6,4.26
427,75.72,4.2700000000000005
428,74.23,4.28
429,77.19,4.29
430,75.8,4.3
431,76.05,4.3100000000000005
432,73.9,4.32
433,75.67,4.33
434,76.01,4.34
435,75.34,4.3500000000000005
436,74.54,4.36
437,73.16,4.37
438,76.05,4.38
439,75.25,4.39
440,75.72,4.4
441,75.25,4.41
442,75.71,4.42
443,75.29,4.43
444,75.76,4.44
445,76.81,4.45
446,74.97,4.46
447,75.3,4.47
448,75.71,4.48
449,74.5,4.49
450,74.54,4.5
451,73.82,4.51
452,74.16,4.5200000000000005
453,75.63,4.53
454,73.94,4.54
455,77.47,4.55
456,75.29,4.5600000000000005
457,76.05,4.57
458,73.9,4.58
459,77.14,4.59
460,76.47,4.6000000000000005
461,76.01,4.61
462,74.96,4.62
463,73.53,4.63
464,75.29,4.64
465,74.87,4.65
466,72.83,4.66
467,74.92,4.67
468,75.29,4.68
469,75.63,4.69
470,74.32,4.7
471,76.05,4.71
472,75.63,4.72
473,75.67,4.73
474,75.76,4.74
475,77.19,4.75
476,76.05,4.76
477,73.86,4.7700000000000005
478,75.71,4.78
479,75.67,4.79
480,74.96,4.8
481,72.79,4.8100000000000005
482,74.49,4.82
483,75.72,4.83
484,73.9,4.84
485,76.05,4.8500000000000005
486,76.0,4.86
487,75.06,4.87
488,75.67,4.88
489,75.76,4.89
490,77.18,4.9
491,76.06,4.91
492,74.92,4.92
493,74.27,4.93
494,75.29,4.94
495,73.86,4.95
496,74.55,4.96
497,73.52,4.97
498,74.69,4.98
499,76.43,4.99
500,74.23,5.0
