,time,voltage
0,0.0,12
1,0.01,12
2,0.02,12
3,0.03,12
4,0.04,12
5,0.05,12
6,0.06,12
7,0.07,12
8,0.08,12
9,0.09,12
10,0.1,12
11,0.11,12
12,0.12,12
13,0.13,12
14,0.14,12
15,0.15,12
16,0.16,12
17,0.17,12
18,0.18,12
19,0.19,12
20,0.2,12
21,0.21,12
22,0.22,12
23,0.23,12
24,0.24,12
25,0.25,12
26,0.26,12
27,0.27,12
28,0.28,12
29,0.29,12
30,0.3,12
31,0.31,12
32,0.32,12
33,0.33,12
34,0.34,12
35,0.35000000000000003,12
36,0.36,12
37,0.37,12
38,0.38,12
39,0.39,12
40,0.4,12
41,0.41000000000000003,12
42,0.42,12
43,0.43,12
44,0.44,12
45,0.45,12
46,0.46,12
47,0.47000000000000003,12
48,0.48,12
49,0.49,12
50,0.5,12
51,0.51,12
52,0.52,12
53,0.53,12
54,0.54,12
55,0.55,12
56,0.56,12
57,0.5700000000000001,12
58,0.58,12
59,0.59,12
60,0.6,12
61,0.61,12
62,0.62,12
63,0.63,12
64,0.64,12
65,0.65,12
66,0.66,12
67,0.67,12
68,0.68,12
69,0.6900000000000001,12
70,0.7000000000000001,12
71,0.71,12
72,0.72,12
73,0.73,12
74,0.74,12
75,0.75,12
76,0.76,12
77,0.77,12
78,0.78,12
79,0.79,12
80,0.8,12
81,0.81,12
82,0.8200000000000001,12
83,0.8300000000000001,12
84,0.84,12
85,0.85,12
86,0.86,12
87,0.87,12
88,0.88,12
89,0.89,12
90,0.9,12
91,0.91,12
92,0.92,12
93,0.93,12
94,0.9400000000000001,12
95,0.9500000000000001,12
96,0.96,12
97,0.97,12
98,0.98,12
99,0.99,12
100,1.0,12
101,1.01,12
102,1.02,12
103,1.03,12
104,1.04,12
105,1.05,12
106,1.06,12
107,1.07,12
108,1.08,12
109,1.09,12
110,1.1,12
111,1.11,12
112,1.12,12
113,1.1300000000000001,12
114,1.1400000000000001,12
115,1.1500000000000001,12
116,1.16,12
117,1.17,12
118,1.18,12
119,1.19,12
120,1.2,12
121,1.21,12
122,1.22,12
123,1.23,12
124,1.24,12
125,1.25,12
126,1.26,12
127,1.27,12
128,1.28,12
129,1.29,12
130,1.3,12
131,1.31,12
132,1.32,12
133,1.33,12
134,1.34,12
135,1.35,12
136,1.36,12
137,1.37,12
138,1.3800000000000001,12
139,1.3900000000000001,12
140,1.4000000000000001,12
141,1.41,12
142,1.42,12
143,1.43,12
144,1.44,12
145,1.45,12
146,1.46,12
147,1.47,12
148,1.48,12
149,1.49,12
150,1.5,12
151,1.51,12
152,1.52,12
153,1.53,12
154,1.54,12
155,1.55,12
156,1.56,12
157,1.57,12
158,1.58,12
159,1.59,12
160,1.6,12
161,1.61,12
162,1.62,12
163,1.6300000000000001,12
164,1.6400000000000001,12
165,1.6500000000000001,12
166,1.6600000000000001,12
167,1.67,12
168,1.68,12
169,1.69,12
170,1.7,12
171,1.71,12
172,1.72,12
173,1.73,12
174,1.74,12
175,1.75,12
176,1.76,12
177,1.77,12
178,1.78,12
179,1.79,12
180,1.8,12
181,1.81,12
182,1.82,12
183,1.83,12
184,1.84,12
185,1.85,12
186,1.86,12
187,1.87,12
188,1.8800000000000001,12
189,1.8900000000000001,12
190,1.9000000000000001,12
191,1.9100000000000001,12
192,1.92,12
193,1.93,12
194,1.94,12
195,1.95,12
196,1.96,12
197,1.97,12
198,1.98,12
199,1.99,12
200,2.0,12
201,2.0100000000000002,12
202,2.02,12
203,2.0300000000000002,12
204,2.04,12
205,2.05,12
206,2.06,12
207,2.07,12
208,2.08,12
209,2.09,12
210,2.1,12
211,2.11,12
212,2.12,12
213,2.13,12
214,2.14,12
215,2.15,12
216,2.16,12
217,2.17,12
218,2.18,12
219,2.19,12
220,2.2,12
221,2.21,12
222,2.22,12
223,2.23,12
224,2.24,12
225,2.25,12
226,2.2600000000000002,12
227,2.27,12
228,2.2800000000000002,12
229,2.29,12
230,2.3000000000000003,12
231,2.31,12
232,2.32,12
233,2.33,12
234,2.34,12
235,2.35,12
236,2.36,12
237,2.37,12
238,2.38,12
239,2.39,12
240,2.4,12
241,2.41,12
242,2.42,12
243,2.43,12
244,2.44,12
245,2.45,12
246,2.46,12
247,2.47,12
248,2.48,12
249,2.49,12
250,2.5,12
251,2.5100000000000002,12
252,2.52,12
253,2.5300000000000002,12
254,2.54,12
255,2.5500000000000003,12
256,2.56,12
257,2.57,12
258,2.58,12
259,2.59,12
260,2.6,12
261,2.61,12
262,2.62,12
263,2.63,12
264,2.64,12
265,2.65,12
266,2.66,12
267,2.67,12
268,2.68,12
269,2.69,12
270,2.7,12
271,2.71,12
272,2.72,12
273,2.73,12
274,2.74,12
275,2.75,12
276,2.7600000000000002,12
277,2.77,12
278,2.7800000000000002,12
279,2.79,12
280,2.8000000000000003,12
281,2.81,12
282,2.82,12
283,2.83,12
284,2.84,12
285,2.85,12
286,2.86,12
287,2.87,12
288,2.88,12
289,2.89,12
290,2.9,12
291,2.91,12
292,2.92,12
293,2.93,12
294,2.94,12
295,2.95,12
296,2.96,12
297,2.97,12
298,2.98,12
299,2.99,12
300,3.0,12
301,3.0100000000000002,12
302,3.02,12
303,3.0300000000000002,12
304,3.04,12
305,3.0500000000000003,12
306,3.06,12
307,3.0700000000000003,12
308,3.08,12
309,3.09,12
310,3.1,12
311,3.11,12
312,3.12,12
313,3.13,12
314,3.14,12
315,3.15,12
316,3.16,12
317,3.17,12
318,3.18,12
319,3.19,12
320,3.2,12
321,3.21,12
322,3.22,12
323,3.23,12
324,3.24,12
325,3.25,12
326,3.2600000000000002,12
327,3.27,12
328,3.2800000000000002,12
329,3.29,12
330,3.3000000000000003,12
331,3.31,12
332,3.3200000000000003,12
333,3.33,12
334,3.34,12
335,3.35,12
336,3.36,12
337,3.37,12
338,3.38,12
339,3.39,12
340,3.4,12
341,3.41,12
342,3.42,12
343,3.43,12
344,3.44,12
345,3.45,12
346,3.46,12
347,3.47,12
348,3.48,12
349,3.49,12
350,3.5,12
351,3.5100000000000002,12
352,3.52,12
353,3.5300000000000002,12
354,3.54,12
355,3.5500000000000003,12
356,3.56,12
357,3.5700000000000003,12
358,3.58,12
359,3.59,12
360,3.6,12
361,3.61,12
362,3.62,12
363,3.63,12
364,3.64,12
365,3.65,12
366,3.66,12
367,3.67,12
368,3.68,12
369,3.69,12
370,3.7,12
371,3.71,12
372,3.72,12
373,3.73,12
374,3.74,12
375,3.75,12
376,3.7600000000000002,12
377,3.77,12
378,3.7800000000000002,12
379,3.79,12
380,3.8000000000000003,12
381,3.81,12
382,3.8200000000000003,12
383,3.83,12
384,3.84,12
385,3.85,12
386,3.86,12
387,3.87,12
388,3.88,12
389,3.89,12
390,3.9,12
391,3.91,12
392,3.92,12
393,3.93,12
394,3.94,12
395,3.95,12
396,3.96,12
397,3.97,12
398,3.98,12
399,3.99,12
400,4.0,12
401,4.01,12
402,4.0200000000000005,12
403,4.03,12
404,4.04,12
405,4.05,12
406,4.0600000000000005,12
407,4.07,12
408,4.08,12
409,4.09,12
410,4.1,12
411,4.11,12
412,4.12,12
413,4.13,12
414,4.14,12
415,4.15,12
416,4.16,12
417,4.17,12
418,4.18,12
419,4.19,12
420,4.2,12
421,4.21,12
422,4.22,12
423,4.23,12
424,4.24,12
425,4.25,12
426,4.26,12
427,4.2700000000000005,12
428,4.28,12
429,4.29,12
430,4.3,12
431,4.3100000000000005,12
432,4.32,12
433,4.33,12
434,4.34,12
435,4.3500000000000005,12
436,4.36,12
437,4.37,12
438,4.38,12
439,4.39,12
440,4.4,12
441,4.41,12
442,4.42,12
443,4.43,12
444,4.44,12
445,4.45,12
446,4.46,12
447,4.47,12
448,4.48,12
449,4.49,12
450,4.5,12
451,4.51,12
452,4.5200000000000005,12
453,4.53,12
454,4.54,12
455,4.55,12
456,4.5600000000000005,12
457,4.57,12
458,4.58,12
459,4.59,12
460,4.6000000000000005,12
461,4.61,12
462,4.62,12
463,4.63,12
464,4.64,12
465,4.65,12
466,4.66,12
467,4.67,12
468,4.68,12
469,4.69,12
470,4.7,12
471,4.71,12
472,4.72,12
473,4.73,12
474,4.74,12
475,4.75,12
476,4.76,12
477,4.7700000000000005,12
478,4.78,12
479,4.79,12
480,4.8,12
481,4.8100000000000005,12
482,4.82,12
483,4.83,12
484,4.84,12
485,4.8500000000000005,12
486,4.86,12
487,4.87,12
488,4.88,12
489,4.89,12
490,4.9,12
491,4.91,12
492,4.92,12
493,4.93,12
494,4.94,12
495,4.95,12
496,4.96,12
497,4.97,12
498,4.98,12
499,4.99,12
500,5.0,12
501,5.01,12
502,5.0200000000000005,12
